,Sunday,Monday,Tuesday,Wednesday,Thursday,Friday,Saturday,,Name:,John Powers,
6:00 AM,,,,,,,,,Requested Minumum Hours:,10,
7:00 AM,,,,,,,,,Requested Maximum Hours:,15,
8:00 AM,,,,,,,,,SSU ID:,4567891,
9:00 AM,,,,,,,,,,DEPT####,In Class?
10:00 AM,,,,,,,,,Requested Courses:,MATH2110,
11:00 AM,,,,,,,,,Enter as many courses as you would like to SI for.,MATH2130,
12:00 PM,,,,,,,,,,ENGL1101,
1:00 PM,,,,,,busy,,,,,
2:00 PM,,,,,,busy,,,,,
3:00 PM,,WORK,,WORK,,busy,,,,,
4:00 PM,,WORK,,WORK,,busy,,,,,
5:00 PM,,WORK,,WORK,,busy,,,,,
6:00 PM,BUSY,WORK,,WORK,,busy,,,,,
7:00 PM,BUSY,,,,,BUSY,,,,,
8:00 PM,,,,,,BUSY,,,,,
9:00 PM,,,,,,BUSY,,,,,
,,,,,,,,,,,
To edit multiple cells:,,,,,,,,,,,
,Highlight multiple cells,,,,,,,,,,
,Type BUSY or WORK or CLASS,,,,,,,,,,
,Hit CTRL+ENTER,,,,,,,,,,
